{
  "prepare_queue": {
    "installed": [],
    "uninstalled": []
  },
  "config_munge": {
    "files": {}
  },
  "installed_plugins": {
    "com.razorpay.cordova": {
      "PACKAGE_NAME": "oneqlik.schoolbus.tracking"
    },
    "cordova-plugin-app-version": {
      "PACKAGE_NAME": "oneqlik.schoolbus.tracking"
    },
    "cordova-plugin-datepicker": {
      "PACKAGE_NAME": "oneqlik.schoolbus.tracking"
    },
    "cordova-plugin-device": {
      "PACKAGE_NAME": "oneqlik.schoolbus.tracking"
    },
    "cordova-plugin-geolocation": {
      "PACKAGE_NAME": "oneqlik.schoolbus.tracking"
    },
    "cordova-plugin-googlemaps": {
      "PACKAGE_NAME": "oneqlik.schoolbus.tracking"
    },
    "cordova-plugin-ionic-keyboard": {
      "PACKAGE_NAME": "oneqlik.schoolbus.tracking"
    },
    "cordova-plugin-ionic-webview": {
      "PACKAGE_NAME": "oneqlik.schoolbus.tracking"
    },
    "cordova-plugin-network-information": {
      "PACKAGE_NAME": "oneqlik.schoolbus.tracking"
    },
    "cordova-plugin-splashscreen": {
      "PACKAGE_NAME": "oneqlik.schoolbus.tracking"
    },
    "cordova-plugin-statusbar": {
      "PACKAGE_NAME": "oneqlik.schoolbus.tracking"
    },
    "cordova-plugin-tts": {
      "PACKAGE_NAME": "oneqlik.schoolbus.tracking"
    },
    "cordova-plugin-whitelist": {
      "PACKAGE_NAME": "oneqlik.schoolbus.tracking"
    },
    "cordova-plugin-x-socialsharing": {
      "PACKAGE_NAME": "oneqlik.schoolbus.tracking"
    },
    "cordova-support-google-services": {
      "PACKAGE_NAME": "oneqlik.schoolbus.tracking"
    },
    "cordova.plugins.diagnostic": {
      "PACKAGE_NAME": "oneqlik.schoolbus.tracking"
    },
    "mx.ferreyra.callnumber": {
      "PACKAGE_NAME": "oneqlik.schoolbus.tracking"
    },
    "phonegap-plugin-push": {
      "PACKAGE_NAME": "oneqlik.schoolbus.tracking"
    }
  },
  "dependent_plugins": {
    "cordova-plugin-file": {
      "PACKAGE_NAME": "oneqlik.schoolbus.tracking"
    },
    "cordova-plugin-file-transfer": {
      "PACKAGE_NAME": "oneqlik.schoolbus.tracking"
    },
    "es6-promise-plugin": {
      "PACKAGE_NAME": "oneqlik.schoolbus.tracking"
    },
    "phonegap-plugin-multidex": {
      "PACKAGE_NAME": "oneqlik.schoolbus.tracking"
    }
  }
}
